<?xml version="1.0" encoding="UTF-8"?>
<kml xmlns="http://www.opengis.net/kml/2.2">
  <Document>
    <name>ZONAS</name>
    <description>ZONAS MENSAJERIA</description>
    <Style id="poly-006064-1200-77-normal">
      <LineStyle>
        <color>ff646000</color>
        <width>1.2</width>
      </LineStyle>
      <PolyStyle>
        <color>4d646000</color>
        <fill>1</fill>
        <outline>1</outline>
      </PolyStyle>
    </Style>
    <Style id="poly-006064-1200-77-highlight">
      <LineStyle>
        <color>ff646000</color>
        <width>1.8</width>
      </LineStyle>
      <PolyStyle>
        <color>4d646000</color>
        <fill>1</fill>
        <outline>1</outline>
      </PolyStyle>
    </Style>
    <StyleMap id="poly-006064-1200-77">
      <Pair>
        <key>normal</key>
        <styleUrl>#poly-006064-1200-77-normal</styleUrl>
      </Pair>
      <Pair>
        <key>highlight</key>
        <styleUrl>#poly-006064-1200-77-highlight</styleUrl>
      </Pair>
    </StyleMap>
    <Style id="poly-0097A7-1200-77-normal">
      <LineStyle>
        <color>ffa79700</color>
        <width>1.2</width>
      </LineStyle>
      <PolyStyle>
        <color>4da79700</color>
        <fill>1</fill>
        <outline>1</outline>
      </PolyStyle>
    </Style>
    <Style id="poly-0097A7-1200-77-highlight">
      <LineStyle>
        <color>ffa79700</color>
        <width>1.8</width>
      </LineStyle>
      <PolyStyle>
        <color>4da79700</color>
        <fill>1</fill>
        <outline>1</outline>
      </PolyStyle>
    </Style>
    <StyleMap id="poly-0097A7-1200-77">
      <Pair>
        <key>normal</key>
        <styleUrl>#poly-0097A7-1200-77-normal</styleUrl>
      </Pair>
      <Pair>
        <key>highlight</key>
        <styleUrl>#poly-0097A7-1200-77-highlight</styleUrl>
      </Pair>
    </StyleMap>
    <Style id="poly-01579B-1200-77-normal">
      <LineStyle>
        <color>ff9b5701</color>
        <width>1.2</width>
      </LineStyle>
      <PolyStyle>
        <color>4d9b5701</color>
        <fill>1</fill>
        <outline>1</outline>
      </PolyStyle>
    </Style>
    <Style id="poly-01579B-1200-77-highlight">
      <LineStyle>
        <color>ff9b5701</color>
        <width>1.8</width>
      </LineStyle>
      <PolyStyle>
        <color>4d9b5701</color>
        <fill>1</fill>
        <outline>1</outline>
      </PolyStyle>
    </Style>
    <StyleMap id="poly-01579B-1200-77">
      <Pair>
        <key>normal</key>
        <styleUrl>#poly-01579B-1200-77-normal</styleUrl>
      </Pair>
      <Pair>
        <key>highlight</key>
        <styleUrl>#poly-01579B-1200-77-highlight</styleUrl>
      </Pair>
    </StyleMap>
    <Style id="poly-0288D1-1200-76-normal">
      <LineStyle>
        <color>ffd18802</color>
        <width>1.2</width>
      </LineStyle>
      <PolyStyle>
        <color>4cd18802</color>
        <fill>1</fill>
        <outline>1</outline>
      </PolyStyle>
    </Style>
    <Style id="poly-0288D1-1200-76-highlight">
      <LineStyle>
        <color>ffd18802</color>
        <width>1.8</width>
      </LineStyle>
      <PolyStyle>
        <color>4cd18802</color>
        <fill>1</fill>
        <outline>1</outline>
      </PolyStyle>
    </Style>
    <StyleMap id="poly-0288D1-1200-76">
      <Pair>
        <key>normal</key>
        <styleUrl>#poly-0288D1-1200-76-normal</styleUrl>
      </Pair>
      <Pair>
        <key>highlight</key>
        <styleUrl>#poly-0288D1-1200-76-highlight</styleUrl>
      </Pair>
    </StyleMap>
    <Style id="poly-097138-1200-77-normal">
      <LineStyle>
        <color>ff387109</color>
        <width>1.2</width>
      </LineStyle>
      <PolyStyle>
        <color>4d387109</color>
        <fill>1</fill>
        <outline>1</outline>
      </PolyStyle>
    </Style>
    <Style id="poly-097138-1200-77-highlight">
      <LineStyle>
        <color>ff387109</color>
        <width>1.8</width>
      </LineStyle>
      <PolyStyle>
        <color>4d387109</color>
        <fill>1</fill>
        <outline>1</outline>
      </PolyStyle>
    </Style>
    <StyleMap id="poly-097138-1200-77">
      <Pair>
        <key>normal</key>
        <styleUrl>#poly-097138-1200-77-normal</styleUrl>
      </Pair>
      <Pair>
        <key>highlight</key>
        <styleUrl>#poly-097138-1200-77-highlight</styleUrl>
      </Pair>
    </StyleMap>
    <Style id="poly-1A237E-1200-77-normal">
      <LineStyle>
        <color>ff7e231a</color>
        <width>1.2</width>
      </LineStyle>
      <PolyStyle>
        <color>4d7e231a</color>
        <fill>1</fill>
        <outline>1</outline>
      </PolyStyle>
    </Style>
    <Style id="poly-1A237E-1200-77-highlight">
      <LineStyle>
        <color>ff7e231a</color>
        <width>1.8</width>
      </LineStyle>
      <PolyStyle>
        <color>4d7e231a</color>
        <fill>1</fill>
        <outline>1</outline>
      </PolyStyle>
    </Style>
    <StyleMap id="poly-1A237E-1200-77">
      <Pair>
        <key>normal</key>
        <styleUrl>#poly-1A237E-1200-77-normal</styleUrl>
      </Pair>
      <Pair>
        <key>highlight</key>
        <styleUrl>#poly-1A237E-1200-77-highlight</styleUrl>
      </Pair>
    </StyleMap>
    <Style id="poly-673AB7-1200-77-normal">
      <LineStyle>
        <color>ffb73a67</color>
        <width>1.2</width>
      </LineStyle>
      <PolyStyle>
        <color>4db73a67</color>
        <fill>1</fill>
        <outline>1</outline>
      </PolyStyle>
    </Style>
    <Style id="poly-673AB7-1200-77-highlight">
      <LineStyle>
        <color>ffb73a67</color>
        <width>1.8</width>
      </LineStyle>
      <PolyStyle>
        <color>4db73a67</color>
        <fill>1</fill>
        <outline>1</outline>
      </PolyStyle>
    </Style>
    <StyleMap id="poly-673AB7-1200-77">
      <Pair>
        <key>normal</key>
        <styleUrl>#poly-673AB7-1200-77-normal</styleUrl>
      </Pair>
      <Pair>
        <key>highlight</key>
        <styleUrl>#poly-673AB7-1200-77-highlight</styleUrl>
      </Pair>
    </StyleMap>
    <Style id="poly-880E4F-1200-77-normal">
      <LineStyle>
        <color>ff4f0e88</color>
        <width>1.2</width>
      </LineStyle>
      <PolyStyle>
        <color>4d4f0e88</color>
        <fill>1</fill>
        <outline>1</outline>
      </PolyStyle>
    </Style>
    <Style id="poly-880E4F-1200-77-highlight">
      <LineStyle>
        <color>ff4f0e88</color>
        <width>1.8</width>
      </LineStyle>
      <PolyStyle>
        <color>4d4f0e88</color>
        <fill>1</fill>
        <outline>1</outline>
      </PolyStyle>
    </Style>
    <StyleMap id="poly-880E4F-1200-77">
      <Pair>
        <key>normal</key>
        <styleUrl>#poly-880E4F-1200-77-normal</styleUrl>
      </Pair>
      <Pair>
        <key>highlight</key>
        <styleUrl>#poly-880E4F-1200-77-highlight</styleUrl>
      </Pair>
    </StyleMap>
    <Style id="poly-E65100-1200-77-normal">
      <LineStyle>
        <color>ff0051e6</color>
        <width>1.2</width>
      </LineStyle>
      <PolyStyle>
        <color>4d0051e6</color>
        <fill>1</fill>
        <outline>1</outline>
      </PolyStyle>
    </Style>
    <Style id="poly-E65100-1200-77-highlight">
      <LineStyle>
        <color>ff0051e6</color>
        <width>1.8</width>
      </LineStyle>
      <PolyStyle>
        <color>4d0051e6</color>
        <fill>1</fill>
        <outline>1</outline>
      </PolyStyle>
    </Style>
    <StyleMap id="poly-E65100-1200-77">
      <Pair>
        <key>normal</key>
        <styleUrl>#poly-E65100-1200-77-normal</styleUrl>
      </Pair>
      <Pair>
        <key>highlight</key>
        <styleUrl>#poly-E65100-1200-77-highlight</styleUrl>
      </Pair>
    </StyleMap>
    <Style id="poly-FFD600-1200-77-normal">
      <LineStyle>
        <color>ff00d6ff</color>
        <width>1.2</width>
      </LineStyle>
      <PolyStyle>
        <color>4d00d6ff</color>
        <fill>1</fill>
        <outline>1</outline>
      </PolyStyle>
    </Style>
    <Style id="poly-FFD600-1200-77-highlight">
      <LineStyle>
        <color>ff00d6ff</color>
        <width>1.8</width>
      </LineStyle>
      <PolyStyle>
        <color>4d00d6ff</color>
        <fill>1</fill>
        <outline>1</outline>
      </PolyStyle>
    </Style>
    <StyleMap id="poly-FFD600-1200-77">
      <Pair>
        <key>normal</key>
        <styleUrl>#poly-FFD600-1200-77-normal</styleUrl>
      </Pair>
      <Pair>
        <key>highlight</key>
        <styleUrl>#poly-FFD600-1200-77-highlight</styleUrl>
      </Pair>
    </StyleMap>
    <Folder>
      <name>ZONA NORTE</name>
      <Placemark>
        <name>ZONA NORTE
</name>
        <description>NORTE</description>
        <styleUrl>#poly-0288D1-1200-76</styleUrl>
        <Polygon>
          <outerBoundaryIs>
            <LinearRing>
              <tessellate>1</tessellate>
              <coordinates>
                -74.0553764,4.6959418,0
                -74.0569793,4.6870902,0
                -74.0587603,4.6774237,0
                -74.0595113,4.6716281,0
                -74.0470015,4.66462,0
                -74.0473314,4.6641786,0
                -74.0476667,4.6636837,0
                -74.0463471,4.66352,0
                -74.0423801,4.6638254,0
                -74.0423091,4.6651944,0
                -74.0423191,4.6662185,0
                -74.0423563,4.6667733,0
                -74.0429514,4.6669752,0
                -74.0421549,4.6683339,0
                -74.0391709,4.6675055,0
                -74.0382422,4.6703153,0
                -74.0381479,4.6721426,0
                -74.0392791,4.6721623,0
                -74.0404049,4.672166,0
                -74.0413456,4.6718543,0
                -74.0411651,4.6730075,0
                -74.0411866,4.6738095,0
                -74.0405026,4.6743842,0
                -74.0398079,4.6750017,0
                -74.0397542,4.6768463,0
                -74.0394806,4.6770923,0
                -74.0392285,4.6775361,0
                -74.0372201,4.6788742,0
                -74.0347665,4.6810786,0
                -74.0332054,4.6820436,0
                -74.0327494,4.682196,0
                -74.0318079,4.6823431,0
                -74.0279482,4.6826933,0
                -74.0256898,4.6854173,0
                -74.0278074,4.6863657,0
                -74.0285303,4.6855817,0
                -74.0291995,4.686776,0
                -74.0301906,4.6879489,0
                -74.0344071,4.6880344,0
                -74.0355818,4.6885584,0
                -74.0372072,4.6897293,0
                -74.0382694,4.6904403,0
                -74.0399753,4.6895207,0
                -74.0410053,4.6899912,0
                -74.0445458,4.6920015,0
                -74.0496956,4.694247,0
                -74.0520989,4.6952521,0
                -74.0553764,4.6959418,0
              </coordinates>
            </LinearRing>
          </outerBoundaryIs>
        </Polygon>
      </Placemark>
    </Folder>
    <Folder>
      <name>ZONA CHAPINERO 1</name>
      <Placemark>
        <name>ZONA CHAPINERO 1</name>
        <description>Zona chapinero 1</description>
        <styleUrl>#poly-E65100-1200-77</styleUrl>
        <Polygon>
          <outerBoundaryIs>
            <LinearRing>
              <tessellate>1</tessellate>
              <coordinates>
                -74.0582066,4.6806422,0
                -74.0588235,4.6805299,0
                -74.0595048,4.6791826,0
                -74.0616935,4.6775573,0
                -74.063115,4.6768248,0
                -74.0677606,4.6741087,0
                -74.0697669,4.672617,0
                -74.0714138,4.6707404,0
                -74.0739029,4.6679067,0
                -74.0722292,4.6665059,0
                -74.0699439,4.6649179,0
                -74.0674548,4.6629771,0
                -74.0650838,4.6612982,0
                -74.0625518,4.6595552,0
                -74.0596335,4.6574112,0
                -74.0563559,4.6552137,0
                -74.0551757,4.6543742,0
                -74.0532177,4.6528825,0
                -74.0500333,4.651116,0
                -74.0495103,4.6510465,0
                -74.0490677,4.6516827,0
                -74.0493145,4.6535327,0
                -74.0493199,4.6541262,0
                -74.0481719,4.6552757,0
                -74.0463641,4.6550191,0
                -74.0459671,4.6562061,0
                -74.0461388,4.6593178,0
                -74.0452805,4.6606438,0
                -74.0444973,4.6623013,0
                -74.042389,4.6637877,0
                -74.0456989,4.6634669,0
                -74.0463051,4.6634187,0
                -74.0476944,4.6636112,0
                -74.0478071,4.6636166,0
                -74.047099,4.6645897,0
                -74.0562293,4.6696796,0
                -74.0594854,4.6714921,0
                -74.0596356,4.6715991,0
                -74.0590616,4.6765554,0
                -74.0585145,4.6792714,0
                -74.0582066,4.6806422,0
              </coordinates>
            </LinearRing>
          </outerBoundaryIs>
        </Polygon>
      </Placemark>
    </Folder>
    <Folder>
      <name>ZONA CHAPINERO 2</name>
      <Placemark>
        <name>ZONA CHAPINERO 2</name>
        <description>ZONA CHAPINERO 2</description>
        <styleUrl>#poly-FFD600-1200-77</styleUrl>
        <Polygon>
          <outerBoundaryIs>
            <LinearRing>
              <tessellate>1</tessellate>
              <coordinates>
                -74.0739487,4.6678151,0
                -74.0758048,4.6657085,0
                -74.0766417,4.6647461,0
                -74.0770065,4.6638586,0
                -74.0775429,4.6617734,0
                -74.0783046,4.6592177,0
                -74.0783476,4.6583408,0
                -74.0785836,4.6548762,0
                -74.0788518,4.6513901,0
                -74.0793668,4.6454979,0
                -74.0795921,4.6408569,0
                -74.0797638,4.6379803,0
                -74.0797852,4.6362586,0
                -74.0799462,4.6342108,0
                -74.0800105,4.6339381,0
                -74.0791629,4.6338579,0
                -74.07912,4.6342749,0
                -74.0770118,4.6338846,0
                -74.0753167,4.6335798,0
                -74.074335,4.6334515,0
                -74.0725594,4.6332269,0
                -74.0697913,4.6326602,0
                -74.0671359,4.6322003,0
                -74.0652208,4.6314999,0
                -74.0642123,4.6311523,0
                -74.0632735,4.6309385,0
                -74.062426,4.6309278,0
                -74.0617232,4.6309385,0
                -74.0605323,4.6309278,0
                -74.0599315,4.6305749,0
                -74.058172,4.6303877,0
                -74.056332,4.6301418,0
                -74.0561979,4.6303182,0
                -74.0560799,4.6314785,0
                -74.0561281,4.6322645,0
                -74.056096,4.6330986,0
                -74.0555971,4.6335852,0
                -74.0556346,4.6343284,0
                -74.0550552,4.6349113,0
                -74.0538,4.6354031,0
                -74.0536337,4.6356544,0
                -74.0535103,4.6359164,0
                -74.0534862,4.6359993,0
                -74.0534325,4.6360634,0
                -74.0532957,4.6362211,0
                -74.0532112,4.6362867,0
                -74.053167,4.6363335,0
                -74.0530918,4.6364618,0
                -74.0530114,4.636558,0
                -74.0515094,4.6382583,0
                -74.0508335,4.6420011,0
                -74.0505545,4.6458081,0
                -74.0504901,4.6464069,0
                -74.0485804,4.6481606,0
                -74.0481298,4.6487381,0
                -74.0478938,4.6499037,0
                -74.0478616,4.6509837,0
                -74.0494977,4.6510265,0
                -74.050061,4.6510907,0
                -74.053234,4.6528604,0
                -74.0547146,4.6539592,0
                -74.0568523,4.6555124,0
                -74.0594326,4.6572394,0
                -74.0611036,4.6584585,0
                -74.0633567,4.6600678,0
                -74.0677341,4.6631315,0
                -74.0699817,4.6648905,0
                -74.0721758,4.666409,0
                -74.0734042,4.66735,0
                -74.0739487,4.6678151,0
              </coordinates>
            </LinearRing>
          </outerBoundaryIs>
        </Polygon>
      </Placemark>
    </Folder>
    <Folder>
      <name>ZONA UNAL</name>
      <Placemark>
        <name>ZONA UNAL</name>
        <description>ZONA UNAL</description>
        <styleUrl>#poly-097138-1200-77</styleUrl>
        <Polygon>
          <outerBoundaryIs>
            <LinearRing>
              <tessellate>1</tessellate>
              <coordinates>
                -74.0796348,4.6413463,0
                -74.0814426,4.64279,0
                -74.0846398,4.6454313,0
                -74.085836,4.6462066,0
                -74.0861955,4.6461371,0
                -74.0863993,4.6459339,0
                -74.0867104,4.6452495,0
                -74.087735,4.6440144,0
                -74.0887221,4.6432337,0
                -74.0901651,4.6423515,0
                -74.0922251,4.6410148,0
                -74.0940597,4.6398973,0
                -74.0948751,4.6393359,0
                -74.0941187,4.6380366,0
                -74.0930619,4.6364433,0
                -74.0917959,4.6348499,0
                -74.0904226,4.6341495,0
                -74.0886363,4.6335934,0
                -74.0870591,4.6329731,0
                -74.0856107,4.6325026,0
                -74.0850367,4.632262,0
                -74.0845218,4.6317434,0
                -74.0832289,4.6298559,0
                -74.0817805,4.6277011,0
                -74.0820488,4.6273108,0
                -74.0820273,4.6269097,0
                -74.0817108,4.6266905,0
                -74.0810349,4.6265301,0
                -74.0805575,4.6273215,0
                -74.0800371,4.6286956,0
                -74.0797206,4.629519,0
                -74.079565,4.6307274,0
                -74.0794363,4.6320962,0
                -74.0791949,4.6338179,0
                -74.080021,4.6338875,0
                -74.0800585,4.6338904,0
                -74.0799686,4.6342206,0
                -74.0798761,4.6354236,0
                -74.0798211,4.6360706,0
                -74.0798198,4.6368298,0
                -74.0797997,4.6376319,0
                -74.0797406,4.6386344,0
                -74.0797044,4.6392974,0
                -74.0796629,4.6400085,0
                -74.0796348,4.6413463,0
              </coordinates>
            </LinearRing>
          </outerBoundaryIs>
        </Polygon>
      </Placemark>
    </Folder>
    <Folder>
      <name>ZONA CENTRO</name>
      <Placemark>
        <name>ZONA CENTRO</name>
        <description>ZONA CENTRO</description>
        <styleUrl>#poly-1A237E-1200-77</styleUrl>
        <Polygon>
          <outerBoundaryIs>
            <LinearRing>
              <tessellate>1</tessellate>
              <coordinates>
                -74.0950787,4.639396,0
                -74.0991879,4.6367332,0
                -74.1007006,4.6355783,0
                -74.1017842,4.634124,0
                -74.1036189,4.6316644,0
                -74.1064727,4.6279536,0
                -74.107728,4.6272585,0
                -74.1078353,4.6268094,0
                -74.1074705,4.6263282,0
                -74.1096914,4.6235157,0
                -74.1104102,4.6220827,0
                -74.1123629,4.6196444,0
                -74.114337,4.6156342,0
                -74.1148305,4.6154524,0
                -74.1150236,4.6152492,0
                -74.1151953,4.6150353,0
                -74.1150022,4.6142547,0
                -74.1163647,4.6113993,0
                -74.1178346,4.6086403,0
                -74.1207314,4.6034001,0
                -74.1211069,4.6031862,0
                -74.121654,4.6029296,0
                -74.121815,4.6026194,0
                -74.1219115,4.6018174,0
                -74.1251838,4.5978391,0
                -74.1260099,4.5964274,0
                -74.1263962,4.5948019,0
                -74.1265035,4.5942458,0
                -74.1269541,4.5940747,0
                -74.1271579,4.5936897,0
                -74.1268897,4.5931229,0
                -74.1268039,4.5926737,0
                -74.1271794,4.5922673,0
                -74.1273832,4.5920748,0
                -74.1273189,4.5918396,0
                -74.1278768,4.5911765,0
                -74.1282094,4.5905134,0
                -74.1284239,4.5866314,0
                -74.1278875,4.5850914,0
                -74.1255057,4.5795088,0
                -74.1237462,4.575231,0
                -74.123656,4.5750041,0
                -74.1237579,4.574742,0
                -74.1237955,4.5745388,0
                -74.1236828,4.5743249,0
                -74.1235165,4.5741966,0
                -74.1238491,4.5731004,0
                -74.1244928,4.5714267,0
                -74.1259037,4.5682771,0
                -74.1264884,4.5672397,0
                -74.1266332,4.5664269,0
                -74.1257481,4.5647478,0
                -74.1251044,4.56355,0
                -74.1250024,4.5627479,0
                -74.1243212,4.5609939,0
                -74.123538,4.5593148,0
                -74.1230283,4.5585983,0
                -74.1223095,4.5578336,0
                -74.1217677,4.5567801,0
                -74.1214566,4.5558818,0
                -74.1213546,4.5553845,0
                -74.1213922,4.5539674,0
                -74.1207324,4.5404221,0
                -74.121183,4.5361868,0
                -74.1213546,4.5330424,0
                -74.122685,4.5304327,0
                -74.1217194,4.5275236,0
                -74.1243802,4.5245289,0
                -74.1262255,4.521962,0
                -74.1249166,4.5197159,0
                -74.1236077,4.5159297,0
                -74.1227065,4.5112023,0
                -74.121934,4.5080364,0
                -74.1209469,4.5059614,0
                -74.1247879,4.503972,0
                -74.1240798,4.5019826,0
                -74.125496,4.500528,0
                -74.1271697,4.499437,0
                -74.1266332,4.4941105,0
                -74.1228352,4.4934902,0
                -74.1227923,4.4925489,0
                -74.124702,4.4919713,0
                -74.1237794,4.4898963,0
                -74.1201316,4.4904097,0
                -74.1210757,4.4855324,0
                -74.1324483,4.4732533,0
                -74.136654,4.4690604,0
                -74.1296158,4.4647819,0
                -74.1245518,4.4654665,0
                -74.1112481,4.467948,0
                -74.1059828,4.4711679,0
                -74.1015973,4.4732112,0
                -74.0990868,4.4735748,0
                -74.0967265,4.4728475,0
                -74.0882935,4.4676705,0
                -74.0837874,4.4701092,0
                -74.0770068,4.4713072,0
                -74.0769639,4.4775965,0
                -74.0785088,4.4913302,0
                -74.077908,4.4973199,0
                -74.0740457,4.5001008,0
                -74.0798821,4.506946,0
                -74.0838733,4.5220054,0
                -74.0812983,4.526968,0
                -74.0754619,4.5315456,0
                -74.0765777,4.5374066,0
                -74.0745606,4.5463478,0
                -74.0733161,4.5481018,0
                -74.0693679,4.554091,0
                -74.0625873,4.5625613,0
                -74.0653338,4.5687215,0
                -74.071342,4.5746678,0
                -74.0664496,4.5778762,0
                -74.061686,4.584849,0
                -74.0591111,4.5877579,0
                -74.0588536,4.5895974,0
                -74.0612998,4.5898113,0
                -74.0625443,4.5915651,0
                -74.0624585,4.5940462,0
                -74.0606561,4.5968054,0
                -74.0602913,4.5990726,0
                -74.0575232,4.6022595,0
                -74.0594974,4.6050613,0
                -74.0585103,4.6073071,0
                -74.0605488,4.6130178,0
                -74.0612783,4.6152635,0
                -74.0575662,4.6194556,0
                -74.055871,4.6227921,0
                -74.0549054,4.6273691,0
                -74.0562787,4.6299142,0
                -74.0603664,4.6304168,0
                -74.0605917,4.6307911,0
                -74.0632846,4.6307697,0
                -74.0671792,4.6320423,0
                -74.078938,4.6341383,0
                -74.0795603,4.6296148,0
                -74.0805688,4.6265884,0
                -74.0808155,4.6264601,0
                -74.0817382,4.6265457,0
                -74.0821567,4.6267916,0
                -74.0821352,4.6273477,0
                -74.0819313,4.627722,0
                -74.0846028,4.6316466,0
                -74.0851071,4.6321706,0
                -74.0903535,4.6340527,0
                -74.0918662,4.6346944,0
                -74.0928211,4.6359669,0
                -74.0937331,4.6372929,0
                -74.0950787,4.639396,0
              </coordinates>
            </LinearRing>
          </outerBoundaryIs>
        </Polygon>
      </Placemark>
    </Folder>
    <Folder>
      <name>ZONA AEROPUERTO</name>
      <Placemark>
        <name>ZONA AEROPUERTO</name>
        <description>ZONA AEROPUERTO</description>
        <styleUrl>#poly-0097A7-1200-77</styleUrl>
        <Polygon>
          <outerBoundaryIs>
            <LinearRing>
              <tessellate>1</tessellate>
              <coordinates>
                -74.0948861,4.6396077,0
                -74.0899937,4.6425591,0
                -74.0876549,4.6442915,0
                -74.0864747,4.6461522,0
                -74.0838783,4.6525897,0
                -74.0831273,4.6530388,0
                -74.08302,4.6538729,0
                -74.0834921,4.6541723,0
                -74.0842431,4.6541937,0
                -74.0877407,4.6597329,0
                -74.0891354,4.661123,0
                -74.0923326,4.66632,0
                -74.0940063,4.6673679,0
                -74.0952616,4.6680042,0
                -74.0969889,4.668865,0
                -74.0998213,4.6711427,0
                -74.0999286,4.6718163,0
                -74.102525,4.6740298,0
                -74.1051106,4.6761363,0
                -74.110872,4.6811193,0
                -74.1122105,4.6823624,0
                -74.1139351,4.6838834,0
                -74.1151744,4.6848939,0
                -74.1179102,4.6884173,0
                -74.1190581,4.6902805,0
                -74.1201418,4.6922293,0
                -74.1205494,4.6926463,0
                -74.122427,4.6935766,0
                -74.1249269,4.6952982,0
                -74.1293739,4.6986771,0
                -74.1336708,4.7019704,0
                -74.146406,4.7115938,0
                -74.1449093,4.7128502,0
                -74.1440993,4.7139462,0
                -74.1439008,4.7175763,0
                -74.1443514,4.7210514,0
                -74.1502737,4.7223773,0
                -74.1555094,4.7228049,0
                -74.1564964,4.7229332,0
                -74.1575264,4.7236176,0
                -74.1604017,4.7199394,0
                -74.1720747,4.711642,0
                -74.1707658,4.7105941,0
                -74.169178,4.7089046,0
                -74.1670965,4.7070869,0
                -74.1645216,4.7056755,0
                -74.1630196,4.703259,0
                -74.1595383,4.7002617,0
                -74.1550751,4.6972464,0
                -74.1402837,4.6860464,0
                -74.1297265,4.6763798,0
                -74.117045,4.6624145,0
                -74.1147705,4.6596984,0
                -74.1144701,4.6586932,0
                -74.1110583,4.653154,0
                -74.1086336,4.6511222,0
                -74.1077324,4.6504806,0
                -74.1022607,4.6437651,0
                -74.0979799,4.6376697,0
                -74.0948861,4.6396077,0
              </coordinates>
            </LinearRing>
          </outerBoundaryIs>
        </Polygon>
      </Placemark>
    </Folder>
    <Folder>
      <name>ZONA SUR</name>
      <Placemark>
        <name>ZONA SUR</name>
        <description>ZONA SUR</description>
        <styleUrl>#poly-880E4F-1200-77</styleUrl>
        <Polygon>
          <outerBoundaryIs>
            <LinearRing>
              <tessellate>1</tessellate>
              <coordinates>
                -74.1631909,4.7030919,0
                -74.1663773,4.7000979,0
                -74.1681583,4.7010817,0
                -74.1688128,4.700825,0
                -74.168963,4.6992425,0
                -74.1686197,4.6982588,0
                -74.1707011,4.6965586,0
                -74.1717418,4.6966335,0
                -74.1719671,4.6963448,0
                -74.1721065,4.6953396,0
                -74.1721065,4.6945911,0
                -74.1708727,4.6929872,0
                -74.1707547,4.6919393,0
                -74.1705616,4.6912763,0
                -74.1697677,4.6898863,0
                -74.1694458,4.6895441,0
                -74.1684909,4.6893302,0
                -74.167579,4.6883251,0
                -74.1679223,4.6873414,0
                -74.1695853,4.6856626,0
                -74.1714735,4.6833849,0
                -74.1732867,4.6824547,0
                -74.1743167,4.6771081,0
                -74.1727932,4.6755255,0
                -74.1708405,4.6741782,0
                -74.1709264,4.6716974,0
                -74.1698964,4.6694518,0
                -74.1682656,4.6685536,0
                -74.1663344,4.6684253,0
                -74.1642745,4.6675698,0
                -74.1610773,4.6667571,0
                -74.1624077,4.6653456,0
                -74.1629441,4.6642335,0
                -74.1616567,4.664704,0
                -74.1620858,4.6610041,0
                -74.1626866,4.6573684,0
                -74.1653688,4.6570476,0
                -74.1695531,4.6553794,0
                -74.1786726,4.6524708,0
                -74.1818483,4.6486853,0
                -74.1841658,4.6467818,0
                -74.1860969,4.6465893,0
                -74.1997008,4.6494398,0
                -74.2061381,4.6487554,0
                -74.2124896,4.6462745,0
                -74.2221027,4.6455045,0
                -74.2211585,4.6394306,0
                -74.2177253,4.6379762,0
                -74.2266517,4.6285657,0
                -74.2297416,4.6310467,0
                -74.2360072,4.6301912,0
                -74.2341189,4.6246304,0
                -74.2370372,4.6228338,0
                -74.244247,4.6185562,0
                -74.2473369,4.6150485,0
                -74.2501693,4.6133375,0
                -74.2438178,4.6083754,0
                -74.2473369,4.5992212,0
                -74.2524867,4.5921201,0
                -74.2530017,4.5816823,0
                -74.2463885,4.5862747,0
                -74.2448864,4.5842855,0
                -74.2458091,4.5822107,0
                -74.2473541,4.5805852,0
                -74.2510877,4.5797938,0
                -74.2502509,4.5783821,0
                -74.2492424,4.576564,0
                -74.2500792,4.5747245,0
                -74.2524395,4.5733984,0
                -74.2532764,4.57096,0
                -74.2534481,4.569805,0
                -74.2527829,4.5693558,0
                -74.248899,4.5698264,0
                -74.2478261,4.5691633,0
                -74.247633,4.567388,0
                -74.248148,4.5661474,0
                -74.2507229,4.5659549,0
                -74.2510663,4.5658051,0
                -74.2510877,4.5648854,0
                -74.2499719,4.5638373,0
                -74.2477618,4.5621689,0
                -74.2463241,4.5617197,0
                -74.2453156,4.5610138,0
                -74.2453371,4.5593241,0
                -74.2432557,4.5555381,0
                -74.2373751,4.5528101,0
                -74.2330835,4.5560721,0
                -74.2266033,4.5551523,0
                -74.2255519,4.5563501,0
                -74.2233203,4.5597725,0
                -74.2160247,4.5556229,0
                -74.2121838,4.553762,0
                -74.2097698,4.5553448,0
                -74.2084072,4.557687,0
                -74.2052851,4.5595586,0
                -74.2058752,4.5610666,0
                -74.2060498,4.5665985,0
                -74.2071656,4.5687374,0
                -74.205964,4.5720314,0
                -74.2023162,4.5747264,0
                -74.2008571,4.5750687,0
                -74.1955356,4.5746409,0
                -74.1933898,4.5757531,0
                -74.1908149,4.5733147,0
                -74.1908149,4.5711758,0
                -74.1948918,4.569208,0
                -74.1940764,4.5674968,0
                -74.1923169,4.5688657,0
                -74.1939477,4.5632189,0
                -74.1929606,4.5603955,0
                -74.1902999,4.5620211,0
                -74.1850642,4.5586415,0
                -74.1787986,4.5610799,0
                -74.1771892,4.5635718,0
                -74.1769317,4.5671225,0
                -74.1752795,4.5678177,0
                -74.1729192,4.5654327,0
                -74.1697863,4.5633579,0
                -74.1647438,4.5610051,0
                -74.1602806,4.5613901,0
                -74.1610531,4.5643419,0
                -74.1564611,4.5576683,0
                -74.1613106,4.5552726,0
                -74.1695503,4.5503529,0
                -74.1725544,4.5457326,0
                -74.1764168,4.5402995,0
                -74.172254,4.5353369,0
                -74.1665462,4.5307166,0
                -74.1587786,4.537861,0
                -74.1584352,4.5276791,0
                -74.1545299,4.5243422,0
                -74.1407541,4.5287059,0
                -74.1312269,4.5360214,0
                -74.1295103,4.5405134,0
                -74.1213993,4.5459465,0
                -74.1216783,4.5556576,0
                -74.1220109,4.5568982,0
                -74.1224722,4.5574544,0
                -74.1251758,4.5616468,0
                -74.1251973,4.5630799,0
                -74.1252402,4.563497,0
                -74.1267315,4.5663739,0
                -74.1266993,4.567315,0
                -74.1237704,4.5740955,0
                -74.1240064,4.5745553,0
                -74.1239098,4.5750152,0
                -74.1238884,4.5752077,0
                -74.1285662,4.5863835,0
                -74.1286734,4.5870466,0
                -74.1284052,4.5905116,0
                -74.1280619,4.5911319,0
                -74.1274933,4.5917735,0
                -74.1275469,4.592212,0
                -74.1269032,4.5927253,0
                -74.1273109,4.593645,0
                -74.1271607,4.5940621,0
                -74.1265706,4.594415,0
                -74.1261522,4.5964897,0
                -74.1251866,4.5980618,0
                -74.1220216,4.6018476,0
                -74.1219143,4.6028101,0
                -74.1213349,4.6032485,0
                -74.1208307,4.6035266,0
                -74.1151444,4.6142849,0
                -74.1153482,4.6150549,0
                -74.1149834,4.6155254,0
                -74.1144792,4.6157393,0
                -74.1124407,4.6197281,0
                -74.1105954,4.6220594,0
                -74.1098765,4.6234282,0
                -74.107602,4.6263477,0
                -74.1079882,4.6268717,0
                -74.107838,4.6273957,0
                -74.1065613,4.628048,0
                -74.1008214,4.635662,0
                -74.0980748,4.6376296,0
                -74.1022805,4.6436716,0
                -74.1077522,4.6503764,0
                -74.1110782,4.6530819,0
                -74.1145436,4.6586211,0
                -74.1147705,4.6596984,0
                -74.1261844,4.6722871,0
                -74.1297678,4.6762649,0
                -74.1351107,4.681141,0
                -74.1404537,4.6860491,0
                -74.1499809,4.6933096,0
                -74.1596476,4.7002706,0
                -74.163113,4.7032111,0
                -74.1631909,4.7030919,0
              </coordinates>
            </LinearRing>
          </outerBoundaryIs>
        </Polygon>
      </Placemark>
    </Folder>
    <Folder>
      <name>ZONA INDUSTRIAL NORTE</name>
      <Placemark>
        <name>ZONA INDUSTRIAL NORTE</name>
        <description>ZONA INDUSTRIAL NORTE</description>
        <styleUrl>#poly-01579B-1200-77</styleUrl>
        <Polygon>
          <outerBoundaryIs>
            <LinearRing>
              <tessellate>1</tessellate>
              <coordinates>
                -74.0796725,4.6414189,0
                -74.0795921,4.6414777,0
                -74.0794419,4.6448756,0
                -74.0791683,4.6482067,0
                -74.0789859,4.6502331,0
                -74.0787981,4.6524894,0
                -74.0786694,4.6541843,0
                -74.0784387,4.6574271,0
                -74.0783314,4.6592236,0
                -74.0777038,4.6613275,0
                -74.0771834,4.6632791,0
                -74.0770332,4.6638832,0
                -74.0766443,4.6648002,0
                -74.0752254,4.6664042,0
                -74.0739433,4.6678665,0
                -74.0739246,4.667936,0
                -74.0717895,4.670358,0
                -74.0704752,4.6718551,0
                -74.0697779,4.6726383,0
                -74.0677716,4.6741273,0
                -74.0655292,4.6754373,0
                -74.0642418,4.6761938,0
                -74.0631367,4.6768327,0
                -74.0617044,4.6775786,0
                -74.0595291,4.6791905,0
                -74.0592502,4.6796263,0
                -74.0588532,4.6805298,0
                -74.0588076,4.6805619,0
                -74.0582068,4.6806769,0
                -74.0578259,4.6826898,0
                -74.0566324,4.6891751,0
                -74.0559189,4.6932759,0
                -74.0553476,4.6963527,0
                -74.0549801,4.6985822,0
                -74.0546448,4.7007688,0
                -74.0541352,4.7036398,0
                -74.053639,4.7067781,0
                -74.0531187,4.709748,0
                -74.0527995,4.7117422,0
                -74.0521289,4.7157947,0
                -74.0518419,4.7177835,0
                -74.0515523,4.7185774,0
                -74.0514342,4.719104,0
                -74.0526251,4.719235,0
                -74.0527753,4.7193232,0
                -74.0529631,4.7194141,0
                -74.0533547,4.719366,0
                -74.0534995,4.7192056,0
                -74.0540896,4.71912,0
                -74.0552269,4.7192269,0
                -74.0564661,4.7193954,0
                -74.0573405,4.7195985,0
                -74.0582953,4.7200155,0
                -74.0591241,4.720478,0
                -74.0590598,4.720633,0
                -74.0593172,4.7207292,0
                -74.0594487,4.7206384,0
                -74.0607147,4.7216354,0
                -74.0614737,4.7222529,0
                -74.0627666,4.7228036,0
                -74.0643625,4.7234959,0
                -74.0654729,4.7239477,0
                -74.0656955,4.7242283,0
                -74.0659825,4.7243165,0
                -74.0662186,4.7244181,0
                -74.0665378,4.7245571,0
                -74.0668489,4.7245063,0
                -74.0694426,4.7255034,0
                -74.0706549,4.7259952,0
                -74.0707408,4.7262973,0
                -74.0697779,4.7274922,0
                -74.0694587,4.7280108,0
                -74.0684073,4.7296975,0
                -74.0676267,4.7316542,0
                -74.0670366,4.7327448,0
                -74.0666665,4.7341134,0
                -74.0663741,4.7352788,0
                -74.0663124,4.7356531,0
                -74.0660067,4.7368078,0
                -74.0657143,4.7383715,0
                -74.0653683,4.7385774,0
                -74.0653227,4.738858,0
                -74.0655695,4.7390478,0
                -74.0654568,4.7396332,0
                -74.0651242,4.7415391,0
                -74.0649553,4.7428355,0
                -74.0648587,4.7444019,0
                -74.0647031,4.746674,0
                -74.0647004,4.7488792,0
                -74.0648426,4.7506487,0
                -74.0650518,4.7526508,0
                -74.0652288,4.7537253,0
                -74.0654246,4.7552944,0
                -74.065599,4.756679,0
                -74.0658431,4.7577562,0
                -74.0660979,4.7587371,0
                -74.0660335,4.7593599,0
                -74.0657706,4.7601084,0
                -74.0654139,4.7605147,0
                -74.0665699,4.761378,0
                -74.0683563,4.7626824,0
                -74.068874,4.7629203,0
                -74.0690429,4.7630727,0
                -74.0693568,4.7631475,0
                -74.069507,4.7631582,0
                -74.0709071,4.7624232,0
                -74.0714623,4.7622013,0
                -74.0715213,4.7620516,0
                -74.0724242,4.7613324,0
                -74.0743715,4.759301,0
                -74.0750367,4.7588038,0
                -74.0756536,4.7586755,0
                -74.0765548,4.7587129,0
                -74.077118,4.7590016,0
                -74.0769678,4.760723,0
                -74.0766245,4.7635403,0
                -74.0772414,4.7641497,0
                -74.077912,4.7646415,0
                -74.0794247,4.766673,0
                -74.0812594,4.7690572,0
                -74.0824664,4.7710619,0
                -74.0838075,4.7733606,0
                -74.0840194,4.7737562,0
                -74.0839738,4.7738791,0
                -74.0841696,4.7740128,0
                -74.0848106,4.7749243,0
                -74.0858701,4.7767017,0
                -74.0871576,4.7787759,0
                -74.0883967,4.7809008,0
                -74.0899712,4.7836165,0
                -74.0907624,4.7849529,0
                -74.0915269,4.7863027,0
                -74.0924951,4.7879331,0
                -74.093627,4.7897934,0
                -74.0941984,4.7908412,0
                -74.0948609,4.7924289,0
                -74.0954697,4.7937546,0
                -74.09577,4.7976699,0
                -74.0956413,4.7981831,0
                -74.0965103,4.7985145,0
                -74.0971111,4.7945802,0
                -74.1017031,4.79365,0
                -74.1058337,4.7915118,0
                -74.1069065,4.7898653,0
                -74.1080116,4.7878874,0
                -74.1111873,4.7869038,0
                -74.1118847,4.7843592,0
                -74.113376,4.7812801,0
                -74.1141056,4.7791952,0
                -74.1126036,4.7771318,0
                -74.1135477,4.7743092,0
                -74.1143631,4.7689099,0
                -74.1147922,4.7628156,0
                -74.115951,4.7621099,0
                -74.1184186,4.7592659,0
                -74.1192876,4.7573414,0
                -74.1198026,4.7562401,0
                -74.1199635,4.754091,0
                -74.1251348,4.75392,0
                -74.1251026,4.7528829,0
                -74.1259395,4.7489161,0
                -74.1268514,4.7462217,0
                -74.130746,4.74604,0
                -74.1313576,4.7422657,0
                -74.1321944,4.7392077,0
                -74.1295551,4.7387052,0
                -74.1292762,4.7373152,0
                -74.126551,4.7369944,0
                -74.1278278,4.7352409,0
                -74.126197,4.7313062,0
                -74.1252636,4.7291891,0
                -74.1270553,4.7274676,0
                -74.1291903,4.7251367,0
                -74.1321837,4.7267299,0
                -74.1367112,4.7257034,0
                -74.1442214,4.7211057,0
                -74.1437923,4.7174809,0
                -74.1440592,4.7139443,0
                -74.1445138,4.7133416,0
                -74.144833,4.7128404,0
                -74.1462492,4.7115573,0
                -74.1430198,4.7092049,0
                -74.1387175,4.7059329,0
                -74.1334068,4.7019018,0
                -74.1285305,4.6981379,0
                -74.1249417,4.6954006,0
                -74.1224097,4.6936363,0
                -74.1204839,4.6926846,0
                -74.1199796,4.6921232,0
                -74.118322,4.689172,0
                -74.1178285,4.688386,0
                -74.1151463,4.6849322,0
                -74.1128664,4.6829914,0
                -74.1108869,4.681211,0
                -74.1088592,4.6794681,0
                -74.1060053,4.6769873,0
                -74.1029583,4.6744477,0
                -74.0998416,4.6718171,0
                -74.0997772,4.6711916,0
                -74.0969663,4.6689032,0
                -74.0938871,4.6673634,0
                -74.0923261,4.6663903,0
                -74.0905612,4.6635566,0
                -74.0890967,4.6611506,0
                -74.0876858,4.6597284,0
                -74.0857654,4.6567503,0
                -74.0842258,4.654232,0
                -74.083464,4.6542052,0
                -74.0829651,4.6539058,0
                -74.0830671,4.6530557,0
                -74.0838181,4.6525852,0
                -74.0853791,4.64865,0
                -74.0863608,4.646292,0
                -74.0861623,4.6462172,0
                -74.085819,4.6462706,0
                -74.084553,4.6454259,0
                -74.0796725,4.6414189,0
              </coordinates>
            </LinearRing>
          </outerBoundaryIs>
        </Polygon>
      </Placemark>
    </Folder>
    <Folder>
      <name>ZONA DISPONIBLE 2</name>
      <Placemark>
        <name>ZONA DISPONIBLE 2</name>
        <description>ZONA DISPONIBLE 2</description>
        <styleUrl>#poly-673AB7-1200-77</styleUrl>
        <Polygon>
          <outerBoundaryIs>
            <LinearRing>
              <tessellate>1</tessellate>
              <coordinates>
                -74.0258046,4.6855737,0
                -74.0241811,4.6857591,0
                -74.0192458,4.6858232,0
                -74.0185162,4.6887959,0
                -74.0225503,4.6938643,0
                -74.0173146,4.7009216,0
                -74.0218851,4.7099248,0
                -74.0177223,4.7163189,0
                -74.012036,4.7263912,0
                -74.0102765,4.7321223,0
                -74.0113494,4.7348809,0
                -74.0111562,4.7402056,0
                -74.013817,4.7439478,0
                -74.0124437,4.7503203,0
                -74.0122672,4.762161,0
                -74.018366,4.7644229,0
                -74.0228507,4.7751145,0
                -74.0248033,4.7861482,0
                -74.0229794,4.7909807,0
                -74.0207264,4.8054566,0
                -74.0212628,4.8104601,0
                -74.0225932,4.8174092,0
                -74.0233013,4.8285063,0
                -74.0186235,4.832975,0
                -74.0219065,4.8386838,0
                -74.0160271,4.8407792,0
                -74.016585,4.8477708,0
                -74.0201256,4.8528594,0
                -74.0196964,4.8608985,0
                -74.0180871,4.8682534,0
                -74.014847,4.8749667,0
                -74.0104052,4.8797345,0
                -74.0056416,4.8804828,0
                -73.9966509,4.8808249,0
                -73.9875099,4.8839036,0
                -73.987467,4.8878374,0
                -73.9874455,4.8978858,0
                -73.9945695,4.8983347,0
                -73.9981314,4.9082547,0
                -73.9886257,4.908105,0
                -73.988218,4.9128297,0
                -73.9942691,4.9163572,0
                -73.9925524,4.9252294,0
                -73.9830038,4.9345717,0
                -73.9697215,4.9375432,0
                -73.9614603,4.9363033,0
                -73.9564606,4.9391252,0
                -73.9541861,4.9389542,0
                -73.9510104,4.9373722,0
                -73.9467832,4.936795,0
                -73.940582,4.9386976,0
                -73.9411184,4.9424602,0
                -73.9465687,4.9482749,0
                -73.953006,4.9497714,0
                -73.9563748,4.9503058,0
                -73.9575979,4.9568687,0
                -73.9604518,4.9605242,0
                -73.9648077,4.9618924,0
                -73.9672109,4.960567,0
                -73.9689275,4.9584079,0
                -73.9698073,4.9561419,0
                -73.9694854,4.953769,0
                -73.9677903,4.949921,0
                -73.9674041,4.9467785,0
                -73.9669105,4.9430587,0
                -73.9696786,4.9415837,0
                -73.9727041,4.9415195,0
                -73.9838835,4.9397879,0
                -73.9881751,4.9393176,0
                -73.9898059,4.9367736,0
                -73.9946768,4.9349992,0
                -73.9948699,4.9319635,0
                -73.998346,4.928201,0
                -74.0004918,4.9233908,0
                -74.0001055,4.9199916,0
                -74.0029165,4.9144973,0
                -74.0054056,4.9106705,0
                -74.0039894,4.9094305,0
                -74.0059635,4.904214,0
                -74.0120789,4.8956196,0
                -74.014053,4.8919851,0
                -74.0186235,4.8864264,0
                -74.0370878,4.8825139,0
                -74.0390566,4.8830163,0
                -74.0404566,4.8851543,0
                -74.042302,4.8859453,0
                -74.0441903,4.8866722,0
                -74.0451237,4.8857101,0
                -74.0454589,4.8865586,0
                -74.047028,4.887204,0
                -74.0479319,4.8877425,0
                -74.0615603,4.8947269,0
                -74.0693922,4.8817897,0
                -74.0762266,4.8697264,0
                -74.0825728,4.8588236,0
                -74.0882458,4.8546336,0
                -74.0868013,4.8458143,0
                -74.0861401,4.8427997,0
                -74.0831253,4.8338196,0
                -74.0813336,4.8272234,0
                -74.0808293,4.8260581,0
                -74.0794024,4.8258122,0
                -74.0784904,4.8222201,0
                -74.0795848,4.8184141,0
                -74.081752,4.8179651,0
                -74.0823957,4.8205523,0
                -74.0831253,4.820563,0
                -74.0861079,4.8174627,0
                -74.0834686,4.8145226,0
                -74.0828785,4.8130794,0
                -74.0809259,4.8118285,0
                -74.0783509,4.8101821,0
                -74.0783617,4.8090381,0
                -74.0797242,4.807659,0
                -74.0872666,4.803853,0
                -74.0867945,4.8019179,0
                -74.0885755,4.7992664,0
                -74.0965204,4.7985299,0
                -74.0956273,4.7981918,0
                -74.0957614,4.7976812,0
                -74.0956554,4.7963141,0
                -74.0954663,4.7937669,0
                -74.0950707,4.792925,0
                -74.094659,4.7919788,0
                -74.0941909,4.7908495,0
                -74.093625,4.7898044,0
                -74.0932656,4.7892151,0
                -74.0924368,4.7878653,0
                -74.0916643,4.7865582,0
                -74.0909817,4.7853782,0
                -74.0903312,4.7842476,0
                -74.0899249,4.7835553,0
                -74.0894126,4.7826639,0
                -74.0888507,4.7817017,0
                -74.0881908,4.7805657,0
                -74.0867947,4.7782135,0
                -74.0859364,4.776829,0
                -74.0848059,4.7749339,0
                -74.0841689,4.7740238,0
                -74.0839596,4.7738875,0
                -74.0840079,4.7737552,0
                -74.0838376,4.7734317,0
                -74.0833374,4.7725751,0
                -74.0827983,4.7716583,0
                -74.0823865,4.7709419,0
                -74.0819574,4.7702403,0
                -74.0812573,4.7690762,0
                -74.0805546,4.7681581,0
                -74.079813,4.7671945,0
                -74.0790619,4.7662055,0
                -74.0779059,4.7646525,0
                -74.0772528,4.7641794,0
                -74.0766131,4.7635553,0
                -74.0766614,4.763133,0
                -74.076829,4.7617484,0
                -74.0769671,4.7606097,0
                -74.0771066,4.7590072,0
                -74.0765474,4.7587226,0
                -74.0756569,4.7586892,0
                -74.0750386,4.7588148,0
                -74.0743775,4.759312,0
                -74.0724422,4.7613407,0
                -74.0715357,4.7620558,0
                -74.0714793,4.7622081,0
                -74.0709027,4.7624393,0
                -74.0701275,4.7628536,0
                -74.0695253,4.7631744,0
                -74.0693429,4.7631637,0
                -74.0690479,4.7631022,0
                -74.0688642,4.7629311,0
                -74.0683586,4.7626999,0
                -74.0673112,4.7619341,0
                -74.066367,4.7612352,0
                -74.0654014,4.7605148,0
                -74.0657609,4.7601018,0
                -74.0660184,4.7593694,0
                -74.0660867,4.7587319,0
                -74.0659231,4.7581238,0
                -74.065844,4.7578271,0
                -74.0657568,4.7574249,0
                -74.0655879,4.7567138,0
                -74.0655584,4.7564599,0
                -74.0654149,4.7553413,0
                -74.0652231,4.753799,0
                -74.065152,4.7533432,0
                -74.0650434,4.752687,0
                -74.0649549,4.7518343,0
                -74.0648422,4.7507705,0
                -74.0647805,4.7500113,0
                -74.0646907,4.7489034,0
                -74.0646933,4.7474813,0
                -74.0646933,4.7466941,0
                -74.0647202,4.7461796,0
                -74.0647859,4.745244,0
                -74.064857,4.7442416,0
                -74.0648945,4.7435413,0
                -74.0649414,4.7428383,0
                -74.0650031,4.7423946,0
                -74.0651064,4.741574,0
                -74.0652968,4.740486,0
                -74.065376,4.7399742,0
                -74.065561,4.739056,0
                -74.0653129,4.7388608,0
                -74.0653572,4.7385721,0
                -74.0657059,4.7383637,0
                -74.065781,4.7379453,0
                -74.0659969,4.7368013,0
                -74.0661417,4.7362493,0
                -74.066304,4.7356478,0
                -74.0663603,4.7352749,0
                -74.0664341,4.7349876,0
                -74.0667037,4.7339144,0
                -74.0670255,4.7327329,0
                -74.0676156,4.731661,0
                -74.0677672,4.7312694,0
                -74.0683948,4.7296829,0
                -74.0687046,4.7291844,0
                -74.0697627,4.7274856,0
                -74.0707256,4.7263001,0
                -74.0706452,4.7260074,0
                -74.0696514,4.7256038,0
                -74.0683934,4.7251159,0
                -74.0668404,4.7245225,0
                -74.0665414,4.7245733,0
                -74.0659768,4.724334,0
                -74.0656965,4.7242539,0
                -74.0654672,4.7239625,0
                -74.0642159,4.7234452,0
                -74.0628922,4.7228732,0
                -74.0619776,4.7224896,0
                -74.0614559,4.7222584,0
                -74.0605949,4.7215661,0
                -74.0594469,4.7206559,0
                -74.0593289,4.7207427,0
                -74.0590392,4.7206331,0
                -74.059105,4.7204808,0
                -74.0582936,4.7200397,0
                -74.0573186,4.7196093,0
                -74.0564616,4.7194089,0
                -74.0552225,4.7192391,0
                -74.0540839,4.7191308,0
                -74.0535112,4.7192191,0
                -74.0533798,4.7193754,0
                -74.052964,4.7194383,0
                -74.0527521,4.7193434,0
                -74.052614,4.7192511,0
                -74.0514057,4.7191242,0
                -74.0513949,4.7190948,0
                -74.0514928,4.7185909,0
                -74.0517423,4.7178317,0
                -74.0518419,4.7177835,0
                -74.0527072,4.711894,0
                -74.053485,4.7074085,0
                -74.0540751,4.7036927,0
                -74.0553572,4.695994,0
                -74.0520795,4.6953043,0
                -74.0504058,4.6946092,0
                -74.044505,4.692043,0
                -74.0409698,4.690022,0
                -74.0399667,4.6895675,0
                -74.0382608,4.6905032,0
                -74.0355786,4.6886159,0
                -74.0343984,4.6880759,0
                -74.0302088,4.6880438,0
                -74.0291359,4.6867927,0
                -74.0285244,4.6856967,0
                -74.0278377,4.6864399,0
                -74.0258046,4.6855737,0
              </coordinates>
            </LinearRing>
          </outerBoundaryIs>
        </Polygon>
      </Placemark>
    </Folder>
    <Folder>
      <name>ZONA ALREDEDORES</name>
      <Placemark>
        <name>ZONA ALREDEDORES</name>
        <description>ZONA ALREDEDORES</description>
        <styleUrl>#poly-006064-1200-77</styleUrl>
        <Polygon>
          <outerBoundaryIs>
            <LinearRing>
              <tessellate>1</tessellate>
              <coordinates>
                -74.2511847,4.5796637,0
                -74.2509487,4.5798989,0
                -74.2470695,4.5807238,0
                -74.2454863,4.5825218,0
                -74.2447876,4.5843425,0
                -74.2460938,4.5860376,0
                -74.2528155,4.5813427,0
                -74.2525716,4.5922809,0
                -74.2473044,4.5993345,0
                -74.244323,4.6085648,0
                -74.2504219,4.613318,0
                -74.2475133,4.6155523,0
                -74.2444429,4.6192509,0
                -74.2347284,4.6248963,0
                -74.2362964,4.6306242,0
                -74.2292187,4.6317283,0
                -74.2277183,4.6305052,0
                -74.226218,4.6293677,0
                -74.2180674,4.638043,0
                -74.220649,4.6389252,0
                -74.2213424,4.6390375,0
                -74.2225709,4.6457317,0
                -74.2124106,4.6467155,0
                -74.2061236,4.6494745,0
                -74.1992786,4.6502658,0
                -74.185889,4.6475283,0
                -74.1787435,4.6530246,0
                -74.1653431,4.6574838,0
                -74.1625302,4.6576502,0
                -74.1615625,4.664361,0
                -74.1629747,4.6637955,0
                -74.162323,4.66583,0
                -74.1612743,4.666656,0
                -74.1696455,4.6690219,0
                -74.170884,4.671456,0
                -74.1707922,4.6740397,0
                -74.1742563,4.6767264,0
                -74.1732236,4.6826557,0
                -74.1712871,4.6837357,0
                -74.1702034,4.6848264,0
                -74.1677036,4.6874248,0
                -74.1674783,4.6883337,0
                -74.1683151,4.6892426,0
                -74.1692915,4.6894564,0
                -74.1697313,4.6898307,0
                -74.1703643,4.6911032,0
                -74.1708471,4.6919693,0
                -74.1707184,4.6929637,0
                -74.1719415,4.6943752,0
                -74.1718771,4.6956583,0
                -74.1717805,4.6968345,0
                -74.1703214,4.6967918,0
                -74.1684975,4.6982674,0
                -74.1688408,4.6995398,0
                -74.1686048,4.7008978,0
                -74.1677894,4.701272,0
                -74.165987,4.7003738,0
                -74.1629829,4.7031967,0
                -74.1645064,4.7055277,0
                -74.1667594,4.7067895,0
                -74.1699137,4.7095695,0
                -74.1704716,4.7104249,0
                -74.1721024,4.7116225,0
                -74.160129,4.7201124,0
                -74.1571464,4.7239403,0
                -74.1559877,4.7231276,0
                -74.1495504,4.7224647,0
                -74.1440357,4.7212458,0
                -74.1366114,4.7256938,0
                -74.1318102,4.7268432,0
                -74.1288545,4.7252287,0
                -74.1269528,4.7273431,0
                -74.1249975,4.7291955,0
                -74.1263198,4.7322135,0
                -74.1275885,4.7351833,0
                -74.1263171,4.7369474,0
                -74.1290905,4.7372842,0
                -74.1291978,4.7380968,0
                -74.1292943,4.7386475,0
                -74.1319712,4.7391286,0
                -74.1311183,4.7422989,0
                -74.1306033,4.7462228,0
                -74.1265531,4.7463137,0
                -74.1257029,4.748968,0
                -74.1248419,4.7529267,0
                -74.1248687,4.7539638,0
                -74.1197135,4.7541563,0
                -74.1195365,4.7562787,0
                -74.1181364,4.7593526,0
                -74.1156687,4.7622019,0
                -74.1145422,4.7629557,0
                -74.1141103,4.768919,0
                -74.1134358,4.7730312,0
                -74.1132755,4.7743176,0
                -74.1123213,4.7771328,0
                -74.113877,4.7791856,0
                -74.1130616,4.781372,0
                -74.1116079,4.7843416,0
                -74.1109051,4.7869904,0
                -74.1076811,4.7879419,0
                -74.1067263,4.78969,0
                -74.1055568,4.7915556,0
                -74.1033816,4.7926568,0
                -74.1013941,4.7937153,0
                -74.0968155,4.7946241,0
                -74.0962495,4.7985691,0
                -74.088278,4.7993443,0
                -74.0865506,4.8019261,0
                -74.0870013,4.8038826,0
                -74.0826507,4.8060583,0
                -74.0794052,4.8077154,0
                -74.0780963,4.8090518,0
                -74.0780856,4.810153,0
                -74.0822913,4.812799,0
                -74.0827043,4.8131679,0
                -74.0831496,4.8144615,0
                -74.085805,4.8174068,0
                -74.0882592,4.820304,0
                -74.0886964,4.8255319,0
                -74.0961423,4.8315614,0
                -74.1024293,4.8341913,0
                -74.106635,4.8272424,0
                -74.1106262,4.8231799,0
                -74.1138877,4.8134725,0
                -74.1174283,4.8099873,0
                -74.1235652,4.8107356,0
                -74.1254534,4.8078918,0
                -74.1247453,4.8007074,0
                -74.12717,4.7977993,0
                -74.1327705,4.7895029,0
                -74.1397013,4.7834088,0
                -74.146718,4.7782769,0
                -74.1551508,4.7686116,0
                -74.1593565,4.7605714,0
                -74.1710295,4.7521462,0
                -74.1798701,4.7550117,0
                -74.1867365,4.7539852,0
                -74.1972508,4.7480405,0
                -74.2071642,4.7478267,0
                -74.2154898,4.7458165,0
                -74.2264761,4.7320878,0
                -74.2308964,4.7387598,0
                -74.240767,4.7426089,0
                -74.2418398,4.7517185,0
                -74.2427411,4.7561664,0
                -74.2440285,4.7600154,0
                -74.2553582,4.7636079,0
                -74.2665162,4.7633085,0
                -74.2728676,4.762667,0
                -74.2778887,4.7622393,0
                -74.2881026,4.7541135,0
                -74.2958703,4.7530016,0
                -74.2971577,4.7465436,0
                -74.2948832,4.72965,0
                -74.2986168,4.7209678,0
                -74.3059124,4.7215238,0
                -74.3138947,4.7124138,0
                -74.3166842,4.6972729,0
                -74.3075003,4.6837571,0
                -74.3030371,4.667033,0
                -74.3028655,4.6585639,0
                -74.3058266,4.6459028,0
                -74.3092169,4.6417537,0
                -74.3128647,4.6319583,0
                -74.3127789,4.6172862,0
                -74.3066849,4.6050522,0
                -74.2980589,4.6018439,0
                -74.2787041,4.5877273,0
                -74.2684044,4.5764339,0
                -74.2646708,4.575835,0
                -74.2563023,4.5741666,0
                -74.2535128,4.5742094,0
                -74.2501332,4.5757174,0
                -74.249511,4.5762949,0
                -74.249232,4.5767173,0
                -74.2507233,4.5794712,0
                -74.2511847,4.5796637,0
              </coordinates>
            </LinearRing>
          </outerBoundaryIs>
        </Polygon>
      </Placemark>
    </Folder>
  </Document>
</kml>
